%YAML 1.1
%TAG !u! tag:unity3d.com,2011:
--- !u!114 &11400000
MonoBehaviour:
  m_ObjectHideFlags: 0
  m_CorrespondingSourceObject: {fileID: 0}
  m_PrefabInstance: {fileID: 0}
  m_PrefabAsset: {fileID: 0}
  m_GameObject: {fileID: 0}
  m_Enabled: 1
  m_EditorHideFlags: 0
  m_Script: {fileID: 11500000, guid: 95e66c6366d904e98bc83428217d4fd7, type: 3}
  m_Name: CapsuleScaling
  m_EditorClassIdentifier: 
  _data:
    _json: '{"graph":{"variables":{"Kind":"Flow","collection":{"$content":[{"name":"axes","value":{"x":0.0,"y":0.0,"z":0.0,"$type":"UnityEngine.Vector3"},"typeHandle":{"Identification":"UnityEngine.Vector3,
      UnityEngine.CoreModule, Version=0.0.0.0, Culture=neutral, PublicKeyToken=null","$version":"A"},"$version":"A"},{"name":"scaleUnits","value":{"$content":0.0,"$type":"System.Single"},"typeHandle":{"Identification":"System.Single,
      mscorlib, Version=4.0.0.0, Culture=neutral, PublicKeyToken=b77a5c561934e089","$version":"A"},"$version":"A"}],"$version":"A"},"$version":"A"},"controlInputDefinitions":[],"controlOutputDefinitions":[],"valueInputDefinitions":[],"valueOutputDefinitions":[],"title":null,"summary":null,"pan":{"x":450.872,"y":113.8142},"zoom":0.8,"elements":[{"coroutine":false,"defaultValues":{},"position":{"x":-223.0,"y":-127.0},"guid":"713afc00-8d95-43bc-9660-e86d9ad68c33","$version":"A","$type":"Unity.VisualScripting.Update","$id":"11"},{"chainable":false,"member":{"name":"ClampMagnitude","parameterTypes":["UnityEngine.Vector3","System.Single"],"targetType":"UnityEngine.Vector3","targetTypeName":"UnityEngine.Vector3","$version":"A"},"defaultValues":{"%vector":{"x":0.0,"y":0.0,"z":0.0,"$type":"UnityEngine.Vector3"},"%maxLength":{"$content":200.0,"$type":"System.Single"}},"position":{"x":-42.0,"y":-153.0},"guid":"a2c5f534-9166-454d-838e-d80f5e1b1026","$version":"A","$type":"Unity.VisualScripting.InvokeMember","$id":"13"},{"chainable":false,"member":{"name":"localScale","parameterTypes":null,"targetType":"UnityEngine.Transform","targetTypeName":"UnityEngine.Transform","$version":"A"},"defaultValues":{"target":null,"input":{"x":0.0,"y":0.0,"z":0.0,"$type":"UnityEngine.Vector3"}},"position":{"x":443.0,"y":-182.0},"guid":"2f6962a4-a2d4-4711-9ac3-dc30bc2cce22","$version":"A","$type":"Unity.VisualScripting.SetMember","$id":"16"},{"defaultValues":{},"position":{"x":194.0,"y":80.0},"guid":"e95e5a34-57ac-4e21-8758-3c639b830cdc","$version":"A","$type":"Unity.VisualScripting.GenericMultiply","$id":"19"},{"defaultValues":{},"position":{"x":28.0,"y":105.0},"guid":"9c4fa1f7-4b6a-40f4-9e80-503ac64a6187","$version":"A","$type":"Unity.VisualScripting.GenericMultiply","$id":"21"},{"specifyFallback":false,"kind":"Object","defaultValues":{"name":{"$content":"axes","$type":"System.String"},"object":null},"position":{"x":-249.0,"y":-12.0},"guid":"6e2e20a7-fcdf-4f91-813f-4022af0801c8","$version":"A","$type":"Unity.VisualScripting.GetVariable","$id":"23"},{"specifyFallback":false,"kind":"Object","defaultValues":{"name":{"$content":"scaleUnits","$type":"System.String"},"object":null},"position":{"x":-178.0,"y":128.0},"guid":"1d27b39b-4296-40d2-95f7-8e7b92b84bb4","$version":"A","$type":"Unity.VisualScripting.GetVariable","$id":"25"},{"member":{"name":"deltaTime","parameterTypes":null,"targetType":"UnityEngine.Time","targetTypeName":"UnityEngine.Time","$version":"A"},"defaultValues":{},"position":{"x":-181.0,"y":269.0},"guid":"148e1859-0a6b-450f-938e-f19fd840762d","$version":"A","$type":"Unity.VisualScripting.GetMember","$id":"27"},{"member":{"name":"localScale","parameterTypes":null,"targetType":"UnityEngine.Transform","targetTypeName":"UnityEngine.Transform","$version":"A"},"defaultValues":{"target":null},"position":{"x":176.0,"y":-59.0},"guid":"ec6b7e04-e1b0-4f5e-a913-e8bd40a8c19b","$version":"A","$type":"Unity.VisualScripting.GetMember","$id":"30"},{"inputCount":2,"defaultValues":{},"position":{"x":391.0,"y":38.0},"guid":"1315298a-5330-441b-9837-0c86c73fae31","$version":"A","$type":"Unity.VisualScripting.GenericSum","$id":"33"},{"sourceUnit":{"$ref":"11"},"sourceKey":"trigger","destinationUnit":{"$ref":"13"},"destinationKey":"enter","guid":"6d0857cf-27bd-48f5-9f99-854829573958","$type":"Unity.VisualScripting.ControlConnection"},{"sourceUnit":{"$ref":"13"},"sourceKey":"exit","destinationUnit":{"$ref":"16"},"destinationKey":"assign","guid":"a1de3cf4-4fe8-4a9c-97f3-0771c224e943","$type":"Unity.VisualScripting.ControlConnection"},{"sourceUnit":{"$ref":"25"},"sourceKey":"value","destinationUnit":{"$ref":"21"},"destinationKey":"a","guid":"e689db42-9b09-4f2f-a982-6dbf5f0d88c4","$type":"Unity.VisualScripting.ValueConnection"},{"sourceUnit":{"$ref":"27"},"sourceKey":"value","destinationUnit":{"$ref":"21"},"destinationKey":"b","guid":"0cd93bd1-3390-4a10-9dda-484506afd8a7","$type":"Unity.VisualScripting.ValueConnection"},{"sourceUnit":{"$ref":"21"},"sourceKey":"product","destinationUnit":{"$ref":"19"},"destinationKey":"b","guid":"8b299b12-b3aa-4a12-9250-19dd7fafd109","$type":"Unity.VisualScripting.ValueConnection"},{"sourceUnit":{"$ref":"23"},"sourceKey":"value","destinationUnit":{"$ref":"13"},"destinationKey":"%vector","guid":"6a48f642-f0a1-480f-a78b-2fdbce66c2ce","$type":"Unity.VisualScripting.ValueConnection"},{"sourceUnit":{"$ref":"13"},"sourceKey":"result","destinationUnit":{"$ref":"19"},"destinationKey":"a","guid":"59af62fd-87f0-48aa-88d7-6db638954ff1","$type":"Unity.VisualScripting.ValueConnection"},{"sourceUnit":{"$ref":"33"},"sourceKey":"sum","destinationUnit":{"$ref":"16"},"destinationKey":"input","guid":"b01d04ed-5fac-4933-a162-110781721dbf","$type":"Unity.VisualScripting.ValueConnection"},{"sourceUnit":{"$ref":"30"},"sourceKey":"value","destinationUnit":{"$ref":"33"},"destinationKey":"0","guid":"397ef9e9-fe0f-4cb8-a342-f1714d258a20","$type":"Unity.VisualScripting.ValueConnection"},{"sourceUnit":{"$ref":"19"},"sourceKey":"product","destinationUnit":{"$ref":"33"},"destinationKey":"1","guid":"dfd85ac0-4d71-431f-a66c-c2c0fe4bd04d","$type":"Unity.VisualScripting.ValueConnection"}],"$version":"A"}}'
    _objectReferences: []
